…
```r
%%R

movies_long <- movies |>
    select_if(is.numeric) |>
    pivot_longer(everything())  # To get only some columns we can write c(revenue, budget)

movies_long
```

    # A tibble: 2,040 × 2

    name        value`<chr>`       `<dbl>`
     1 runtime       100
     2 revenue 940335536
     3 budget   94000000
     4 runtime       143
     5 revenue 655011224
     6 budget  140000000
     7 runtime        87
     8 revenue 527068851
     9 budget   75000000
    10 runtime       151
    # ℹ 2,030 more rows
    # ℹ Use `print(n = ...)` to see more rows
…
