…
with the “true” Kendall’s $\tau_K$ value obtained by sending $n \rightarrow \infty$ (this is the **estimation paradigm** in frequentist Statistics!). Here, $n$ is the sample size (i.e., the number of data points).

**As in Pearson’s correlation**, Kendall’s $\tau_K$ is between -1 and 1, and measures dependence’s strength (and direction). For instance, consider the two correlation measures for the following hypothetical dataset plotted below. Note that we are creating this dataset as follows:

$$y = x^{1/3},$$

which is a non-linear dependency between `x` and `y`. Moreover, we are creating a sequence for `x` from `0` to `100` by `5`.

```
non_linear_pairs <- tibble(x = seq(from = 0, to = 100, by = 5), y = x^(1 /3))
non_linear_pairs
```

```
# A tibble: 21 × 2
       x     y
   <dbl> <dbl>
 1     0  0   
 2     5  1.71
 3    10  2.15
 4    15  2.47
 5    20  2.71
 6    25  2.92
 7    30  3.11
 8    35  3.27
 9    40  3.42
10    45  3.56
# ℹ 11 more rows
```
…
|Pearson|Kendall|
|---|---|
|0.9097|1|

Note that this dataset’s sample Pearson’s correlation is not 1! Recall it measures linear dependence, which is not true in `non_linear_pairs`. On the other hand, Kendall’s $\tau_k$ only measures the strength of **monotonic dependence**; thus, it equals 1.

Now, let us check a different case that does not fit the conditions for Pearson’s correlation and Kendall’s $\tau_K$.

```
parabola_pairs <- tibble(x = seq(from = -50, to = 50, by = 5), y = x^2)
parabola_pairs
```

```
# A tibble: 21 × 2
       x     y
   <dbl> <dbl>
 1   -50  2500
 2   -45  2025
 3   -40  1600
 4   -35  1225
 5   -30   900
 6   -25   625
 7   -20   400
 8   -15   225
 9   -10   100
10    -5    25
# ℹ 11 more rows
```
…
