…
We use the `rep_sample_n()` function and `nest()` the samples in the
tibble `listing_samples`.


``` {.r .cell-code}
set.seed(552) # For reproducibility.
listing_samples <- listings |>
  rep_sample_n(size = 40, reps = 100, replace = FALSE) |>
  nest()
print(listing_samples)
```

```
    # A tibble: 100 × 2
    # Groups:   replicate [100]
       replicate data             
           <int> <list>           
     1         1 <tibble [40 × 3]>
     2         2 <tibble [40 × 3]>
     3         3 <tibble [40 × 3]>
     4         4 <tibble [40 × 3]>
     5         5 <tibble [40 × 3]>
     6         6 <tibble [40 × 3]>
     7         7 <tibble [40 × 3]>
     8         8 <tibble [40 × 3]>
     9         9 <tibble [40 × 3]>
    10        10 <tibble [40 × 3]>
    # ℹ 90 more rows
```
…
``` {.r .cell-code}
set.seed(552) # For reproducibility.
listing_samples <- listing_samples |>
  mutate(
    percentile_ci = map(data, ci_pipeline),
    point_estimate = map(data, point_est_pipeline)
  )
print(listing_samples)
```

```
    # A tibble: 100 × 4
    # Groups:   replicate [100]
       replicate data              percentile_ci    point_estimate 
           <int> <list>            <list>           <list>         
     1         1 <tibble [40 × 3]> <tibble [1 × 2]> <infer [1 × 1]>
     2         2 <tibble [40 × 3]> <tibble [1 × 2]> <infer [1 × 1]>
     3         3 <tibble [40 × 3]> <tibble [1 × 2]> <infer [1 × 1]>
     4         4 <tibble [40 × 3]> <tibble [1 × 2]> <infer [1 × 1]>
     5         5 <tibble [40 × 3]> <tibble [1 × 2]> <infer [1 × 1]>
     6         6 <tibble [40 × 3]> <tibble [1 × 2]> <infer [1 × 1]>
     7         7 <tibble [40 × 3]> <tibble [1 × 2]> <infer [1 × 1]>
     8         8 <tibble [40 × 3]> <tibble [1 × 2]> <infer [1 × 1]>
     9         9 <tibble [40 × 3]> <tibble [1 × 2]> <infer [1 × 1]>
    10        10 <tibble [40 × 3]> <tibble [1 × 2]> <infer [1 × 1]>
    # ℹ 90 more rows
```
…
Now that we have all the $m = 100$ 95% confidence intervals and their
corresponding point estimates (i.e., $\hat{p}_E$), we can check which
ones caught the true population parameter $p_E = 0.756$.


``` {.r .cell-code}
listing_samples <- listing_samples |>
  unnest(percentile_ci) |>
  unnest(point_estimate) |>
  mutate(Captured = lower_ci <= 0.756 & 0.756 <= upper_ci)
print(listing_samples)
```

```
    # A tibble: 100 × 6
    # Groups:   replicate [100]
       replicate data              lower_ci upper_ci  stat Captured
           <int> <list>               <dbl>    <dbl> <dbl> <lgl>   
     1         1 <tibble [40 × 3]>    0.675    0.9   0.8   TRUE    
     2         2 <tibble [40 × 3]>    0.625    0.875 0.75  TRUE    
     3         3 <tibble [40 × 3]>    0.624    0.875 0.75  TRUE    
     4         4 <tibble [40 × 3]>    0.55     0.825 0.7   TRUE    
     5         5 <tibble [40 × 3]>    0.775    0.975 0.875 FALSE   
     6         6 <tibble [40 × 3]>    0.5      0.8   0.65  TRUE    
     7         7 <tibble [40 × 3]>    0.575    0.85  0.725 TRUE    
     8         8 <tibble [40 × 3]>    0.6      0.875 0.75  TRUE    
     9         9 <tibble [40 × 3]>    0.7      0.925 0.825 TRUE    
    10        10 <tibble [40 × 3]>    0.65     0.925 0.8   TRUE    
    # ℹ 90 more rows
```
…
